…
``` r
weather_nested = nest(weather_df, data = date:tmin)
 
# We can also do ... (shift+option to put cursor over multiple lines)
# weather_nested = 
#   weather_df %>% 
#   nest(data = date:tmin)


weather_nested %>% filter(name == "CentralPark_NY") %>% pull(data)
```

    ## [[1]]
    ## # A tibble: 365 × 4
    ##    date        prcp  tmax  tmin
    ##    <date>     <dbl> <dbl> <dbl>
    ##  1 2017-01-01     0   8.9   4.4
    ##  2 2017-01-02    53   5     2.8
    ##  3 2017-01-03   147   6.1   3.9
    ##  4 2017-01-04     0  11.1   1.1
    ##  5 2017-01-05     0   1.1  -2.7
    ##  6 2017-01-06    13   0.6  -3.8
    ##  7 2017-01-07    81  -3.2  -6.6
    ##  8 2017-01-08     0  -3.8  -8.8
    ##  9 2017-01-09     0  -4.9  -9.9
    ## 10 2017-01-10     0   7.8  -6  
    ## # … with 355 more rows

``` r
weather_nested$data[[1]]
```

    ## # A tibble: 365 × 4
    ##    date        prcp  tmax  tmin
    ##    <date>     <dbl> <dbl> <dbl>
    ##  1 2017-01-01     0   8.9   4.4
    ##  2 2017-01-02    53   5     2.8
    ##  3 2017-01-03   147   6.1   3.9
    ##  4 2017-01-04     0  11.1   1.1
    ##  5 2017-01-05     0   1.1  -2.7
    ##  6 2017-01-06    13   0.6  -3.8
    ##  7 2017-01-07    81  -3.2  -6.6
    ##  8 2017-01-08     0  -3.8  -8.8
    ##  9 2017-01-09     0  -4.9  -9.9
    ## 10 2017-01-10     0   7.8  -6  
    ## # … with 355 more rows
…
    ## # A tibble: 3 × 4
    ##   name           id          data               lm_result
    ##   <chr>          <chr>       <list>             <list>   
    ## 1 CentralPark_NY USW00094728 <tibble [365 × 4]> <lm>     
    ## 2 Waikiki_HA     USC00519397 <tibble [365 × 4]> <lm>     
    ## 3 Waterhole_WA   USS0023B17S <tibble [365 × 4]> <lm>

## Unest

``` r
unnest(weather_nested, data)
```

    ## # A tibble: 1,095 × 6
    ##    name           id          date        prcp  tmax  tmin
    ##    <chr>          <chr>       <date>     <dbl> <dbl> <dbl>
    ##  1 CentralPark_NY USW00094728 2017-01-01     0   8.9   4.4
    ##  2 CentralPark_NY USW00094728 2017-01-02    53   5     2.8
    ##  3 CentralPark_NY USW00094728 2017-01-03   147   6.1   3.9
    ##  4 CentralPark_NY USW00094728 2017-01-04     0  11.1   1.1
    ##  5 CentralPark_NY USW00094728 2017-01-05     0   1.1  -2.7
    ##  6 CentralPark_NY USW00094728 2017-01-06    13   0.6  -3.8
    ##  7 CentralPark_NY USW00094728 2017-01-07    81  -3.2  -6.6
    ##  8 CentralPark_NY USW00094728 2017-01-08     0  -3.8  -8.8
    ##  9 CentralPark_NY USW00094728 2017-01-09     0  -4.9  -9.9
    ## 10 CentralPark_NY USW00094728 2017-01-10     0   7.8  -6  
    ## # … with 1,085 more rows
…
napoleon_df %>% 
  mutate(reviews = map(urls, get_page_reviews)) %>% 
  select(reviews) %>% 
  unnest()
```

    ## Warning: `cols` is now required when using unnest().
    ## Please use `cols = c(reviews)`

    ## # A tibble: 50 × 3
    ##    title                                                 stars text             
    ##    <chr>                                                 <dbl> <chr>            
    ##  1 it was                                                    5 "mad good yo"    
    ##  2 Fun!                                                      4 "Fun and enterta…
    ##  3 Vintage                                                   5 "Easy to order. …
    ##  4 too many commercials                                      1 "5 minutes into …
    ##  5 this film is so good!                                     5 "VOTE FOR PEDRO!"
    ##  6 Good movie                                                5 "Weird story, go…
    ##  7 I Just everyone to know this....                          5 "VOTE FOR PEDRO …
    ##  8 the cobweb in his hair during the bike ramp scene lol     5 "5 stars for bei…
    ##  9 Best quirky movie ever                                    5 "You all know th…
    ## 10 Classic Film                                              5 "Had to order th…
    ## # … with 40 more rows
